<?xml version="1.0" encoding="iso-8859-1"?>
<!-- Generator: Adobe Illustrator 18.1.1, SVG Export Plug-In . SVG Version: 6.00 Build 0)  -->
<svg version="1.1"  xmlns="http://www.w3.org/2000/svg" xmlns:xlink="http://www.w3.org/1999/xlink" x="0px" y="0px"
	 viewBox="5.833 3.333 19.167 21.667" style="enable-background:new 5.833 3.333 19.167 21.667;" xml:space="preserve">
<g>
	<path  d="M15.417,7.5C12.43,7.5,10,9.93,10,12.917c0,1.821,0.687,2.897,1.352,3.938
		c0.591,0.923,1.148,1.797,1.148,3.187v2.042c0,0.23,0.187,0.417,0.417,0.417h0.417v2.083c0,0.23,0.187,0.417,0.417,0.417h3.333
		c0.23,0,0.417-0.187,0.417-0.417V22.5h0.417c0.23,0,0.417-0.187,0.417-0.417v-2.042c0-1.39,0.558-2.263,1.148-3.187
		c0.664-1.041,1.352-2.117,1.352-3.938C20.833,9.93,18.403,7.5,15.417,7.5z M16.667,24.167h-2.5V22.5h2.5V24.167z M15.417,17.5
		C15.188,17.5,15,17.313,15,17.083c0-0.229,0.188-0.417,0.417-0.417s0.417,0.188,0.417,0.417C15.833,17.313,15.646,17.5,15.417,17.5
		z M18.779,16.406c-0.629,0.983-1.279,2.002-1.279,3.635v1.626h-0.417h-1.25v-3.41c0.484-0.173,0.833-0.631,0.833-1.173
		c0-0.689-0.561-1.25-1.25-1.25c-0.689,0-1.25,0.561-1.25,1.25c0,0.543,0.349,1.001,0.833,1.173v3.41h-1.25h-0.417v-1.626
		c0-1.633-0.65-2.652-1.279-3.635c-0.628-0.983-1.221-1.912-1.221-3.489c0-2.527,2.057-4.583,4.583-4.583S20,10.389,20,12.917
		C20,14.494,19.407,15.422,18.779,16.406z"/>
	<path  d="M7.917,12.5H6.25c-0.23,0-0.417,0.187-0.417,0.417c0,0.23,0.187,0.417,0.417,0.417h1.667
		c0.23,0,0.417-0.187,0.417-0.417C8.333,12.687,8.147,12.5,7.917,12.5z"/>
	<path  d="M24.583,12.5h-1.667c-0.23,0-0.417,0.187-0.417,0.417c0,0.23,0.187,0.417,0.417,0.417h1.667
		c0.23,0,0.417-0.187,0.417-0.417C25,12.687,24.813,12.5,24.583,12.5z"/>
	<path  d="M15.417,5.833c0.23,0,0.417-0.187,0.417-0.417V3.75c0-0.23-0.187-0.417-0.417-0.417S15,3.52,15,3.75
		v1.667C15,5.647,15.187,5.833,15.417,5.833z"/>
	<path  d="M9.818,7.908C9.9,7.99,10.007,8.03,10.113,8.03s0.213-0.041,0.295-0.122
		c0.162-0.162,0.162-0.427,0-0.589L9.23,6.14c-0.162-0.162-0.427-0.162-0.589,0c-0.162,0.163-0.162,0.427,0,0.589L9.818,7.908z"/>
	<path  d="M21.015,17.926c-0.163-0.163-0.427-0.163-0.589,0c-0.163,0.163-0.163,0.427,0,0.589l1.178,1.178
		c0.082,0.082,0.188,0.122,0.295,0.122c0.107,0,0.213-0.041,0.295-0.122c0.162-0.163,0.162-0.427,0-0.589L21.015,17.926z"/>
	<path  d="M21.604,6.14l-1.178,1.179c-0.163,0.162-0.163,0.427,0,0.589c0.082,0.082,0.188,0.122,0.295,0.122
		s0.213-0.041,0.295-0.122l1.178-1.179c0.162-0.163,0.162-0.427,0-0.589C22.032,5.977,21.767,5.977,21.604,6.14z"/>
	<path  d="M9.818,17.926L8.64,19.104c-0.162,0.162-0.162,0.427,0,0.589c0.082,0.082,0.188,0.122,0.295,0.122
		c0.107,0,0.213-0.041,0.295-0.122l1.178-1.178c0.162-0.162,0.162-0.427,0-0.589C10.246,17.763,9.982,17.763,9.818,17.926z"/>
</g>
</svg>
