<?xml version="1.0" encoding="iso-8859-1"?>
<!-- Generator: Adobe Illustrator 18.1.1, SVG Export Plug-In . SVG Version: 6.00 Build 0)  -->
<svg version="1.1"  xmlns="http://www.w3.org/2000/svg" xmlns:xlink="http://www.w3.org/1999/xlink" x="0px" y="0px"
	 viewBox="9.166 5 11.668 21.667" style="enable-background:new 9.166 5 11.668 21.667;" xml:space="preserve">
<path style="fill:#00AEEF;" d="M20.833,7.917v-2.5c0-0.23-0.187-0.417-0.417-0.417H9.583c-0.23,0-0.417,0.187-0.417,0.417v2.5
	c0,0.23,0.187,0.417,0.417,0.417h0.842c0,0.027-0.006,0.052-0.001,0.079c0.007,0.039,0.756,3.945,0.825,6.587h-0.833
	c-0.689,0-1.25,0.561-1.25,1.25s0.561,1.25,1.25,1.25c-0.006,0.176-0.187,5.678-0.823,8.663c-0.048,0.226,0.095,0.447,0.32,0.495
	c0.03,0.005,0.059,0.008,0.087,0.008c0.193,0,0.365-0.134,0.407-0.33c0.3-1.404,0.499-3.302,0.628-4.981
	c0.795-1.39,2.233-2.189,3.965-2.189s3.17,0.799,3.964,2.189c0.129,1.678,0.328,3.577,0.628,4.981
	c0.043,0.196,0.215,0.33,0.407,0.33c0.029,0,0.058-0.003,0.087-0.009c0.225-0.048,0.368-0.269,0.321-0.495
	c-0.637-2.984-0.818-8.487-0.824-8.663c0.689,0,1.25-0.561,1.25-1.25S20.272,15,19.583,15H18.75
	c0.069-2.642,0.817-6.548,0.826-6.588c0.005-0.027-0.001-0.052-0.001-0.079h0.842C20.647,8.333,20.833,8.147,20.833,7.917z
	 M11.257,8.333h1.821c0,0.01-0.004,0.019-0.004,0.029c0.003,0.039,0.276,3.972,0.301,6.637h-1.293c0-0.003,0.002-0.007,0.002-0.011
	C12.018,12.454,11.367,8.917,11.257,8.333z M13.907,8.333h2.185c-0.02,0.295-0.277,4.066-0.301,6.662
	c0,0.002,0.001,0.002,0.001,0.004h-1.585c0-0.002,0.001-0.003,0.001-0.003C14.184,12.401,13.927,8.631,13.907,8.333z M15,18.333
	c-1.54,0-2.886,0.543-3.862,1.518c0.078-1.296,0.108-2.246,0.112-2.339c0-0.004-0.002-0.008-0.002-0.013h7.504
	c0,0.004-0.003,0.008-0.003,0.013c0.003,0.093,0.034,1.043,0.112,2.339C17.886,18.875,16.54,18.333,15,18.333z M20,16.25
	c0,0.229-0.188,0.417-0.417,0.417h-9.167c-0.23,0-0.417-0.188-0.417-0.417s0.187-0.417,0.417-0.417h9.167
	C19.812,15.833,20,16.021,20,16.25z M17.918,15h-1.293c0.025-2.665,0.298-6.598,0.301-6.637c0.001-0.01-0.004-0.019-0.004-0.029
	h1.82c-0.11,0.583-0.761,4.121-0.826,6.656C17.917,14.993,17.918,14.997,17.918,15z M20,7.5H10V5.833h10V7.5z"/>
</svg>
